User Email,FirstName,LastName,Company,Address1,Address2,City,StateProvince,ZipPostalCode,Country,PhoneNumber,Email
user1@testcompany.com,Jhon,Lopez,Test Company,"125 Royal Wood Court,",Ste 100,Tucker,GA,30084,United States,7707231192,user1@testcompany.com
user1@testcompany.com,Manager,Proprietor,Ted's Montana Grill TMG 001,133 Luckie St NW,,Atlanta,GA,30303,United States,404-521-9796,TMG001@tedsmontanagrill.com
user1@testcompany.com,Manager,Proprietor,Ted's Montana Grill TMG 002,191 West Nationwide Blvd,,Columbus,OH,43215,United States,614-227-0013,TMG002@tedsmontanagrill.com
user1@testcompany.com,Manager,Proprietor,Ted's Montana Grill TMG 003,314 City Circle,Suite 1320,Peachtree City,GA,30269,United States,678-829-0272,TMG003@tedsmontanagrill.com
user2@testcompany.com,Andrius,Lopez,Test Company,"125 Royal Wood Court,",Ste 100,Tucker,GA,30084,United States,7707231192,user2@testcompany.com
user2@testcompany.com,Manager,Proprietor,Ted's Montana Grill TMG 005,7301 S. Sante Fe Drive ,Suite 610,Littleton,CO,80120,United States,720-283-2303,TMG005@tedsmontanagrill.com
user2@testcompany.com,Manager,Proprietor,Ted's Montana Grill TMG 006,1401 Larimer Street,,Denver,CO,80202,United States,303-893-0654,TMG006@tedsmontanagrill.com
user2@testcompany.com,Manager,Proprietor,Ted's Montana Grill TMG 007,"2817 West End Avenue, ",Suite 100,Nashville,TN,37203,United States,615-329-3415,TMG007@tedsmontanagrill.com
user2@testcompany.com,Manager,Proprietor,Ted's Montana Grill TMG 008,"1680 Mall of Georgia Blvd, ",Suite 1755,Buford,GA,30519,United States,678-546-3631,TMG008@tedsmontanagrill.com
user2@testcompany.com,Manager,Proprietor,Ted's Montana Grill TMG 010,"2500 Cobb Place Lane, ",Suite 210,Kennesaw,GA,30144,United States,678-581-7890,TMG010@tedsmontanagrill.com
